\relax 
\bibstyle{IEEEtran}
\citation{mislevy2003brief}
\citation{camara2015beyond}
\citation{griffin2012assessment}
\@writefile{toc}{\contentsline {section}{\numberline {I}Introduction}{1}}
\citation{camara2015beyond}
\citation{haocollaborative}
\citation{pisa2013results}
\citation{naep2014}
\@writefile{toc}{\contentsline {section}{\numberline {II}Collaborative Problem Solving}{2}}
\@writefile{toc}{\contentsline {subsection}{\numberline {\unhbox \voidb@x \hbox {II-A}}CPS Assessments}{2}}
\citation{vonDavier2017}
\citation{davey2015psychometric}
\citation{vondavier2015a}
\citation{liu2015tough}
\citation{khan2015}
\citation{khan2013hierarchical}
\citation{mislevy2006concepts}
\citation{bazaldua2015convergence}
\citation{liu2015tough}
\citation{mislevy2014psychometric}
\citation{levy2014dynamic}
\citation{corbett1994knowledge}
\citation{desmarais2012review}
\citation{vanlehn2008intelligent}
\citation{shute2008you}
\citation{davier2013collaborative}
\citation{soller2007applications}
\citation{bergnerjuly2015}
\citation{lamar2014models}
\@writefile{toc}{\contentsline {section}{\numberline {III}Computational Psychometrics}{3}}
\@writefile{lof}{\contentsline {figure}{\numberline {1}{\ignorespaces Computational Psychometric Framework}}{3}}
\newlabel{fig: model1}{{1}{3}}
\citation{romero2009evolutionary}
\citation{zhang2015}
\citation{kerr2015using}
\citation{kerr2012identifying}
\citation{wang2015}
\citation{khan2015}
\citation{vondaviers2016}
\@writefile{toc}{\contentsline {section}{\numberline {IV}CPS Game: Circuit Runner}{4}}
\@writefile{lof}{\contentsline {figure}{\numberline {2}{\ignorespaces CPS Dialog Panel}}{4}}
\newlabel{fig:dialog}{{2}{4}}
\citation{mislevy2014psychometric}
\citation{bauckhage2015clustering}
\citation{kerr2011feasibility,canossa2013meaning,smith2011unsupervised,orkin2011semi,li2013discovery}
\citation{thurau2010analyzing}
\citation{gow2012unsupervised}
\citation{teofilo2013identifying}
\citation{steinhaus1956division}
\@writefile{lot}{\contentsline {table}{\numberline {I}{\ignorespaces Log file flattened}}{5}}
\newlabel{tab:flat}{{I}{5}}
\@writefile{toc}{\contentsline {subsection}{\numberline {\unhbox \voidb@x \hbox {IV-A}}Extract}{5}}
\@writefile{toc}{\contentsline {subsection}{\numberline {\unhbox \voidb@x \hbox {IV-B}}Transform}{5}}
\@writefile{toc}{\contentsline {section}{\numberline {V}Cluster Analysis}{5}}
\@writefile{toc}{\contentsline {subsection}{\numberline {\unhbox \voidb@x \hbox {V-A}}Research Question}{5}}
\@writefile{toc}{\contentsline {subsection}{\numberline {\unhbox \voidb@x \hbox {V-B}}Related Work}{5}}
\@writefile{toc}{\contentsline {subsection}{\numberline {\unhbox \voidb@x \hbox {V-C}}K-Means Methodology}{5}}
\@writefile{toc}{\contentsline {subsubsection}{\numberline {\unhbox \voidb@x \hbox {V-C}1}Encode/Translate}{5}}
\@writefile{lot}{\contentsline {table}{\numberline {II}{\ignorespaces 1-Hot Matrix}}{6}}
\newlabel{tab:1hot}{{II}{6}}
\@writefile{toc}{\contentsline {subsubsection}{\numberline {\unhbox \voidb@x \hbox {V-C}2}Score}{6}}
\@writefile{toc}{\contentsline {subsubsection}{\numberline {\unhbox \voidb@x \hbox {V-C}3}Cluster}{6}}
\@writefile{lof}{\contentsline {figure}{\numberline {3}{\ignorespaces CPS Response Coding}}{6}}
\newlabel{fig:coding}{{3}{6}}
\@writefile{toc}{\contentsline {subsubsection}{\numberline {\unhbox \voidb@x \hbox {V-C}4}K Exploration}{6}}
\@writefile{lot}{\contentsline {table}{\numberline {III}{\ignorespaces Scores Matrix}}{7}}
\newlabel{tab:scores}{{III}{7}}
\@writefile{toc}{\contentsline {subsection}{\numberline {\unhbox \voidb@x \hbox {V-D}}K-Means/K-NN Results}{7}}
\@writefile{toc}{\contentsline {subsubsection}{\numberline {\unhbox \voidb@x \hbox {V-D}1}Cluster Characteristics}{7}}
\citation{arya1998optimal}
\@writefile{lof}{\contentsline {figure}{\numberline {4}{\ignorespaces CPS Data Cluster Counts}}{8}}
\newlabel{fig:counts}{{4}{8}}
\@writefile{lof}{\contentsline {figure}{\numberline {5}{\ignorespaces CPS Data Cluster Domain Score Means }}{8}}
\newlabel{fig:means}{{5}{8}}
\@writefile{toc}{\contentsline {subsubsection}{\numberline {\unhbox \voidb@x \hbox {V-D}2}K-NN Query by Game Id}{8}}
\citation{mclachlan1988mixture}
\@writefile{lof}{\contentsline {figure}{\numberline {6}{\ignorespaces Tableau Scores By Cluster}}{9}}
\newlabel{fig:tab3}{{6}{9}}
\@writefile{toc}{\contentsline {subsection}{\numberline {\unhbox \voidb@x \hbox {V-E}}Mixture Model Methodology}{9}}
\@writefile{toc}{\contentsline {subsection}{\numberline {\unhbox \voidb@x \hbox {V-F}}Mixture Model Results}{9}}
\@writefile{lof}{\contentsline {figure}{\numberline {7}{\ignorespaces EM Clustering Visualization}}{10}}
\newlabel{fig:em1}{{7}{10}}
\@writefile{lof}{\contentsline {figure}{\numberline {8}{\ignorespaces EM Contour Plot}}{10}}
\newlabel{fig:em2}{{8}{10}}
\@writefile{toc}{\contentsline {section}{\numberline {VI}Bayesian Analysis}{10}}
\@writefile{toc}{\contentsline {subsection}{\numberline {\unhbox \voidb@x \hbox {VI-A}}Research Question}{10}}
\@writefile{toc}{\contentsline {subsection}{\numberline {\unhbox \voidb@x \hbox {VI-B}}Methodology}{10}}
\citation{polyak2016mlclustering}
\citation{mr1763essay}
\@writefile{lot}{\contentsline {table}{\numberline {IV}{\ignorespaces Log file format}}{11}}
\newlabel{tab:orig}{{IV}{11}}
\@writefile{lot}{\contentsline {table}{\numberline {V}{\ignorespaces Log file flattened}}{11}}
\newlabel{tab:flat}{{V}{11}}
\@writefile{lot}{\contentsline {table}{\numberline {VI}{\ignorespaces 1-Hot Matrix}}{11}}
\newlabel{tab:1hot}{{VI}{11}}
\@writefile{toc}{\contentsline {subsection}{\numberline {\unhbox \voidb@x \hbox {VI-C}}Select}{11}}
\@writefile{toc}{\contentsline {subsection}{\numberline {\unhbox \voidb@x \hbox {VI-D}}Compute}{11}}
\@writefile{toc}{\contentsline {subsubsection}{\numberline {\unhbox \voidb@x \hbox {VI-D}1}Bayes' Theorem}{11}}
\@writefile{lof}{\contentsline {figure}{\numberline {9}{\ignorespaces Bayesian Selection Example}}{11}}
\newlabel{fig:bins}{{9}{11}}
\citation{mislevy2014psychometric}
\citation{mislevy2014psychometric}
\@writefile{lot}{\contentsline {table}{\numberline {VII}{\ignorespaces Response to Skills Map}}{12}}
\newlabel{tab:resp2skills}{{VII}{12}}
\@writefile{toc}{\contentsline {subsubsection}{\numberline {\unhbox \voidb@x \hbox {VI-D}2}Response to Skill}{12}}
\@writefile{lof}{\contentsline {figure}{\numberline {10}{\ignorespaces Conditional distribution of xs given $\theta $ }}{12}}
\newlabel{fig:theta}{{10}{12}}
\@writefile{toc}{\contentsline {subsubsection}{\numberline {\unhbox \voidb@x \hbox {VI-D}3}Conditional Probability Tables}{12}}
\@writefile{toc}{\contentsline {subsubsection}{\numberline {\unhbox \voidb@x \hbox {VI-D}4}Evidence Tracing}{12}}
\citation{polyak2016mlclustering}
\@writefile{lot}{\contentsline {table}{\numberline {VIII}{\ignorespaces Conditional Probability Table (CPT)}}{13}}
\newlabel{tab:cpt}{{VIII}{13}}
\@writefile{loa}{\contentsline {algorithm}{\numberline {1}{\ignorespaces Bayesian evidence tracing algorithm}}{13}}
\@writefile{toc}{\contentsline {subsection}{\numberline {\unhbox \voidb@x \hbox {VI-E}}Plot}{13}}
\@writefile{lof}{\contentsline {figure}{\numberline {11}{\ignorespaces Matplotlib EN view }}{13}}
\newlabel{fig:game114en-mat}{{11}{13}}
\@writefile{toc}{\contentsline {subsection}{\numberline {\unhbox \voidb@x \hbox {VI-F}}Extend}{13}}
\@writefile{toc}{\contentsline {subsection}{\numberline {\unhbox \voidb@x \hbox {VI-G}}Results}{13}}
\bibdata{paper}
\bibcite{mislevy2003brief}{1}
\bibcite{camara2015beyond}{2}
\bibcite{griffin2012assessment}{3}
\bibcite{haocollaborative}{4}
\bibcite{pisa2013results}{5}
\bibcite{naep2014}{6}
\bibcite{vonDavier2017}{7}
\bibcite{davey2015psychometric}{8}
\bibcite{vondavier2015a}{9}
\bibcite{liu2015tough}{10}
\@writefile{lof}{\contentsline {figure}{\numberline {12}{\ignorespaces CPS EN subskill, game\_id=114 }}{14}}
\newlabel{fig:game114en}{{12}{14}}
\@writefile{lof}{\contentsline {figure}{\numberline {13}{\ignorespaces CPS MU subskill, game\_id=114 }}{14}}
\newlabel{fig:game114mu}{{13}{14}}
\@writefile{toc}{\contentsline {section}{References}{14}}
\@writefile{lof}{\contentsline {figure}{\numberline {14}{\ignorespaces CPS FI subskill, game\_id=114 }}{14}}
\newlabel{fig:game114fi}{{14}{14}}
\@writefile{lof}{\contentsline {figure}{\numberline {15}{\ignorespaces CPS EV subskill, game\_id=114 }}{14}}
\newlabel{fig:game114ev}{{15}{14}}
\@writefile{lof}{\contentsline {figure}{\numberline {16}{\ignorespaces CPS S subskill, game\_id=114 }}{14}}
\newlabel{fig:game114s}{{16}{14}}
\bibcite{khan2015}{11}
\bibcite{khan2013hierarchical}{12}
\bibcite{mislevy2006concepts}{13}
\bibcite{bazaldua2015convergence}{14}
\bibcite{mislevy2014psychometric}{15}
\bibcite{levy2014dynamic}{16}
\bibcite{corbett1994knowledge}{17}
\bibcite{desmarais2012review}{18}
\bibcite{vanlehn2008intelligent}{19}
\bibcite{shute2008you}{20}
\bibcite{davier2013collaborative}{21}
\bibcite{soller2007applications}{22}
\bibcite{bergnerjuly2015}{23}
\bibcite{lamar2014models}{24}
\bibcite{romero2009evolutionary}{25}
\bibcite{zhang2015}{26}
\bibcite{kerr2015using}{27}
\bibcite{kerr2012identifying}{28}
\bibcite{wang2015}{29}
\bibcite{vondaviers2016}{30}
\bibcite{bauckhage2015clustering}{31}
\bibcite{kerr2011feasibility}{32}
\bibcite{canossa2013meaning}{33}
\bibcite{smith2011unsupervised}{34}
\bibcite{orkin2011semi}{35}
\bibcite{li2013discovery}{36}
\bibcite{thurau2010analyzing}{37}
\bibcite{gow2012unsupervised}{38}
\bibcite{teofilo2013identifying}{39}
\bibcite{steinhaus1956division}{40}
\bibcite{arya1998optimal}{41}
\bibcite{mclachlan1988mixture}{42}
\bibcite{polyak2016mlclustering}{43}
\bibcite{mr1763essay}{44}
\@writefile{lof}{\contentsline {figure}{\numberline {17}{\ignorespaces Tableau Score/Cluster Distribution}}{16}}
\newlabel{fig:tb1}{{17}{16}}
\@writefile{toc}{\contentsline {section}{\numberline {VII}Appendix 1: Tableau Score/Cluster Distribution}{16}}
\newlabel{app1}{{VII}{16}}
\@writefile{lof}{\contentsline {figure}{\numberline {18}{\ignorespaces Tableau Distribution EN/MU/FI}}{17}}
\newlabel{fig:tb2}{{18}{17}}
\@writefile{toc}{\contentsline {section}{\numberline {VIII}Appendix 2: Tableau Distribution EN/MU/FI}{17}}
\newlabel{app2}{{VIII}{17}}
