This is BibTeX, Version 0.99d (TeX Live 2016)
Capacity: max_strings=35307, hash_size=35307, hash_prime=30011
The top-level auxiliary file: KDD_sample-sigconf.aux
The style file: ACM-Reference-Format.bst
Reallocated singl_function (elt_size=4) to 100 items from 50.
Reallocated wiz_functions (elt_size=4) to 6000 items from 3000.
Database file #1: test.bib
Reallocated singl_function (elt_size=4) to 100 items from 50.
Warning--no number and no volume in mr1763essay
Warning--empty publisher in bazaldua2015convergence
Warning--empty address in bazaldua2015convergence
Warning--page numbers missing in both pages and numpages fields in bazaldua2015convergence
Warning--no number and no volume in bergnerjuly2015
Warning--page numbers missing in both pages and numpages fields in bergnerjuly2015
Warning--no number and no volume in camara2015beyond
Warning--page numbers missing in both pages and numpages fields in camara2015beyond
Warning--empty address in canossa2013meaning
Warning--no number and no volume in davey2015psychometric
Warning--page numbers missing in both pages and numpages fields in davey2015psychometric
Warning--empty address in griffin2012assessment
Warning--empty publisher in haocollaborative
Warning--empty address in haocollaborative
Warning--page numbers missing in both pages and numpages fields in haocollaborative
Warning--empty address in he2017collaborative
Warning--no number and no volume in kerr2011feasibility
Warning--page numbers missing in both pages and numpages fields in kerr2011feasibility
Warning--empty publisher in khan2013hierarchical
Warning--empty address in khan2013hierarchical
Warning--no number and no volume in levy2014dynamic
Warning--page numbers missing in both pages and numpages fields in levy2014dynamic
Warning--empty publisher in li2013discovery
Warning--empty address in li2013discovery
Warning--page numbers missing in both pages and numpages fields in li2013discovery
Warning--page numbers missing in both pages and numpages fields in mclachlan1988mixture
Warning--no number and no volume in mislevy2014psychometric
Warning--page numbers missing in both pages and numpages fields in mislevy2014psychometric
Warning--no number and no volume in mislevy2006concepts
Warning--no journal in naep2017
Warning--no number and no volume in naep2017
Warning--page numbers missing in both pages and numpages fields in naep2017
Warning--no number and no volume in oliveri2017literature
Warning--page numbers missing in both pages and numpages fields in oliveri2017literature
Warning--empty address in orkin2011semi
Warning--no journal in robins1997quest
Warning--no number and no volume in robins1997quest
Warning--page numbers missing in both pages and numpages fields in robins1997quest
Warning--no journal in sanchez2011problem
Warning--no number and no volume in sanchez2011problem
Warning--page numbers missing in both pages and numpages fields in sanchez2011problem
Warning--page numbers missing in both pages and numpages fields in shute2008monitoring
Warning--no number and no volume in soller2007applications
Warning--no number and no volume in teofilo2013identifying
Warning--page numbers missing in both pages and numpages fields in teofilo2013identifying
Warning--empty publisher in thurau2010analyzing
Warning--empty address in thurau2010analyzing
Warning--no number and no volume in vanlehn2008intelligent
Warning--empty publisher in JEM2017v54
Warning--empty address in JEM2017v54
Warning--page numbers missing in both pages and numpages fields in davier2013collaborative
Warning--no number and no volume in vondaviers2016
Warning--page numbers missing in both pages and numpages fields in vondaviers2016
Warning--empty address in vondavier2017
Warning--no number and no volume in zhang2015
Warning--page numbers missing in both pages and numpages fields in zhang2015
You've used 50 entries,
            5706 wiz_defined-function locations,
            1568 strings with 25390 characters,
and the built_in function-call counts, 54025 in all, are:
= -- 7511
> -- 2154
< -- 0
+ -- 669
- -- 874
* -- 3812
:= -- 5720
add.period$ -- 254
call.type$ -- 50
change.case$ -- 349
chr.to.int$ -- 49
cite$ -- 106
duplicate$ -- 3886
empty$ -- 2913
format.name$ -- 899
if$ -- 13373
int.to.chr$ -- 2
int.to.str$ -- 0
missing$ -- 173
newline$ -- 438
num.names$ -- 399
pop$ -- 1837
preamble$ -- 1
purify$ -- 598
quote$ -- 0
skip$ -- 1365
stack$ -- 0
substring$ -- 3725
swap$ -- 324
text.length$ -- 254
text.prefix$ -- 0
top$ -- 0
type$ -- 991
warning$ -- 56
while$ -- 369
width$ -- 0
write$ -- 874
(There were 56 warnings)
