\BOOKMARK [1][-]{section.1}{Introduction}{}% 1
\BOOKMARK [1][-]{section.2}{Material and Methods}{}% 2
\BOOKMARK [2][-]{subsection.2.1}{CPS Sub-skills}{section.2}% 3
\BOOKMARK [3][-]{subsubsection.2.1.1}{CPS Assessments}{subsection.2.1}% 4
\BOOKMARK [2][-]{subsection.2.2}{Simulation/Game Design}{section.2}% 5
\BOOKMARK [2][-]{subsection.2.3}{Computational Psychometrics}{section.2}% 6
\BOOKMARK [3][-]{subsubsection.2.3.1}{Skill Evidence Tagging}{subsection.2.3}% 7
\BOOKMARK [3][-]{subsubsection.2.3.2}{Bayesian Evidence Tracing}{subsection.2.3}% 8
\BOOKMARK [4][-]{paragraph.2.3.2.1}{Extract}{subsubsection.2.3.2}% 9
\BOOKMARK [4][-]{paragraph.2.3.2.2}{Transform}{subsubsection.2.3.2}% 10
\BOOKMARK [4][-]{paragraph.2.3.2.3}{1-Hot}{subsubsection.2.3.2}% 11
\BOOKMARK [4][-]{paragraph.2.3.2.4}{Compute}{subsubsection.2.3.2}% 12
\BOOKMARK [4][-]{paragraph.2.3.2.5}{Response to Skill}{subsubsection.2.3.2}% 13
\BOOKMARK [4][-]{paragraph.2.3.2.6}{Conditional Probability Tables}{subsubsection.2.3.2}% 14
\BOOKMARK [4][-]{paragraph.2.3.2.7}{Evidence Tracing}{subsubsection.2.3.2}% 15
\BOOKMARK [2][-]{subsection.2.4}{Study Execution}{section.2}% 16
\BOOKMARK [2][-]{subsection.2.5}{Postgame Analysis}{section.2}% 17
\BOOKMARK [3][-]{subsubsection.2.5.1}{Extract}{subsection.2.5}% 18
\BOOKMARK [3][-]{subsubsection.2.5.2}{Transform}{subsection.2.5}% 19
\BOOKMARK [3][-]{subsubsection.2.5.3}{k-means Methodology}{subsection.2.5}% 20
\BOOKMARK [3][-]{subsubsection.2.5.4}{Encode/Translate}{subsection.2.5}% 21
\BOOKMARK [3][-]{subsubsection.2.5.5}{Score}{subsection.2.5}% 22
\BOOKMARK [3][-]{subsubsection.2.5.6}{Cluster}{subsection.2.5}% 23
\BOOKMARK [3][-]{subsubsection.2.5.7}{K Exploration}{subsection.2.5}% 24
\BOOKMARK [3][-]{subsubsection.2.5.8}{K-NN Query by Game Id}{subsection.2.5}% 25
\BOOKMARK [3][-]{subsubsection.2.5.9}{Mixture Model Methodology}{subsection.2.5}% 26
\BOOKMARK [1][-]{section.3}{Results}{}% 27
\BOOKMARK [2][-]{subsection.3.1}{Bayesian Evidence Tracing Results}{section.3}% 28
\BOOKMARK [2][-]{subsection.3.2}{Clustering Results}{section.3}% 29
\BOOKMARK [3][-]{subsubsection.3.2.1}{k-means/K-NN Results}{subsection.3.2}% 30
\BOOKMARK [3][-]{subsubsection.3.2.2}{Cluster Characteristics}{subsection.3.2}% 31
\BOOKMARK [3][-]{subsubsection.3.2.3}{K-NN Query by Game Id}{subsection.3.2}% 32
\BOOKMARK [3][-]{subsubsection.3.2.4}{Mixture Model Results}{subsection.3.2}% 33
\BOOKMARK [1][-]{section.4}{Discussion}{}% 34
