\relax 
\providecommand\hyper@newdestlabel[2]{}
\providecommand\HyperFirstAtBeginDocument{\AtBeginDocument}
\HyperFirstAtBeginDocument{\ifx\hyper@anchor\@undefined
\global\let\oldcontentsline\contentsline
\gdef\contentsline#1#2#3#4{\oldcontentsline{#1}{#2}{#3}}
\global\let\oldnewlabel\newlabel
\gdef\newlabel#1#2{\newlabelxx{#1}#2}
\gdef\newlabelxx#1#2#3#4#5#6{\oldnewlabel{#1}{{#2}{#3}}}
\AtEndDocument{\ifx\hyper@anchor\@undefined
\let\contentsline\oldcontentsline
\let\newlabel\oldnewlabel
\fi}
\fi}
\global\let\hyper@last\relax 
\gdef\HyperFirstAtBeginDocument#1{#1}
\providecommand\HyField@AuxAddToFields[1]{}
\providecommand\HyField@AuxAddToCoFields[2]{}
\citation{griffin2012assessment}
\citation{oliveri2017literature,he2017collaborative}
\citation{vondavier2017}
\citation{camara2015beyond}
\@writefile{toc}{\contentsline {section}{Abstract}{1}{section*.1}}
\@writefile{toc}{\contentsline {section}{\numberline {1}Introduction}{1}{section.1}}
\@writefile{toc}{\contentsline {section}{\numberline {2}Material and Methods}{1}{section.2}}
\@writefile{toc}{\contentsline {subsection}{\numberline {2.1}CPS Sub-skills}{1}{subsection.2.1}}
\citation{pisa2013results}
\citation{naep2014}
\citation{vondavier2017}
\citation{davey2015psychometric}
\citation{haocollaborative}
\citation{shute2008monitoring}
\citation{mislevy2003focus,shute2008monitoring}
\citation{sanchez2011problem,sung2013collaborative}
\citation{paulhus2007self}
\citation{robins1997quest}
\@writefile{toc}{\contentsline {subsubsection}{\numberline {2.1.1}CPS Assessments}{2}{subsubsection.2.1.1}}
\citation{vondavier2015a}
\citation{liu2015tough}
\citation{khan2013hierarchical,khan2015}
\citation{mislevy2006concepts}
\citation{bazaldua2015convergence}
\citation{liu2015tough}
\citation{mislevy2014psychometric}
\citation{levy2014dynamic}
\citation{corbett1994knowledge}
\citation{desmarais2012review}
\citation{vanlehn2008intelligent}
\citation{shute2008you}
\@writefile{toc}{\contentsline {subsection}{\numberline {2.2}Simulation/Game Design}{3}{subsection.2.2}}
\@writefile{lof}{\contentsline {figure}{\numberline {1}{\ignorespaces Circuit Runner: A CPS Dialog Panel Game Screenshot\relax }}{3}{figure.caption.4}}
\providecommand*\caption@xref[2]{\@setref\relax\@undefined{#1}}
\newlabel{fig:dialog1}{{1}{3}{Circuit Runner: A CPS Dialog Panel Game Screenshot\relax }{figure.caption.4}{}}
\@writefile{toc}{\contentsline {subsection}{\numberline {2.3}Computational Psychometrics}{3}{subsection.2.3}}
\citation{davier2013collaborative}
\citation{soller2007applications}
\citation{bergnerjuly2015}
\citation{lamar2014models}
\citation{romero2009evolutionary}
\citation{zhang2015}
\citation{kerr2015using}
\citation{kerr2012identifying}
\citation{khan2015}
\citation{vondaviers2016}
\citation{corbett1994knowledge}
\@writefile{toc}{\contentsline {subsubsection}{\numberline {2.3.1}Skill Evidence Tagging}{4}{figure.caption.5}}
\@writefile{lof}{\contentsline {figure}{\numberline {2}{\ignorespaces CPS Response Coding\relax }}{4}{figure.caption.5}}
\newlabel{fig:coding}{{2}{4}{CPS Response Coding\relax }{figure.caption.5}{}}
\@writefile{toc}{\contentsline {subsubsection}{\numberline {2.3.2}Bayesian Evidence Tracing}{4}{subsubsection.2.3.2}}
\@writefile{toc}{\contentsline {paragraph}{Extract}{4}{table.caption.7}}
\citation{mr1763essay}
\@writefile{lot}{\contentsline {table}{\numberline {1}{\ignorespaces Log file format\relax }}{5}{table.caption.7}}
\newlabel{tab:orig}{{1}{5}{Log file format\relax }{table.caption.7}{}}
\@writefile{lot}{\contentsline {table}{\numberline {2}{\ignorespaces Log file flattened\relax }}{5}{table.caption.9}}
\newlabel{tab:flat}{{2}{5}{Log file flattened\relax }{table.caption.9}{}}
\@writefile{lot}{\contentsline {table}{\numberline {3}{\ignorespaces 1-Hot Matrix\relax }}{5}{table.caption.11}}
\newlabel{tab:1hot}{{3}{5}{1-Hot Matrix\relax }{table.caption.11}{}}
\@writefile{toc}{\contentsline {paragraph}{Transform}{5}{section*.8}}
\@writefile{toc}{\contentsline {paragraph}{1-Hot}{5}{section*.10}}
\@writefile{toc}{\contentsline {paragraph}{Compute}{5}{section*.12}}
\@writefile{toc}{\contentsline {paragraph}{Bayes' Theorem}{5}{section*.13}}
\newlabel{eq:01}{{1}{5}{Bayes' Theorem}{equation.2.1}{}}
\citation{mislevy2014psychometric}
\citation{mislevy2014psychometric}
\@writefile{lof}{\contentsline {figure}{\numberline {3}{\ignorespaces Bayesian Selection Example\relax }}{6}{figure.caption.14}}
\newlabel{fig:bins}{{3}{6}{Bayesian Selection Example\relax }{figure.caption.14}{}}
\@writefile{toc}{\contentsline {paragraph}{Response to Skill}{6}{section*.15}}
\@writefile{lot}{\contentsline {table}{\numberline {4}{\ignorespaces Response to Skills Map\relax }}{6}{table.caption.16}}
\newlabel{tab:resp2skills}{{4}{6}{Response to Skills Map\relax }{table.caption.16}{}}
\@writefile{lof}{\contentsline {figure}{\numberline {4}{\ignorespaces Conditional distribution of xs given $\theta $ \relax }}{6}{figure.caption.17}}
\newlabel{fig:theta}{{4}{6}{Conditional distribution of xs given $\theta $ \relax }{figure.caption.17}{}}
\@writefile{lot}{\contentsline {table}{\numberline {5}{\ignorespaces Conditional Probability Table (CPT)\relax }}{6}{table.caption.19}}
\newlabel{tab:cpt}{{5}{6}{Conditional Probability Table (CPT)\relax }{table.caption.19}{}}
\@writefile{toc}{\contentsline {paragraph}{Conditional Probability Tables}{6}{table.caption.19}}
\citation{ashton2004six}
\citation{mislevy2014psychometric}
\citation{bauckhage2015clustering}
\@writefile{lof}{\contentsline {figure}{\numberline {5}{\ignorespaces Bayesian Evidence Tracing Algorithm \relax }}{7}{figure.caption.21}}
\newlabel{fig:algo1}{{5}{7}{Bayesian Evidence Tracing Algorithm \relax }{figure.caption.21}{}}
\@writefile{toc}{\contentsline {paragraph}{Evidence Tracing}{7}{section*.20}}
\@writefile{toc}{\contentsline {subsection}{\numberline {2.4}Study Execution}{7}{subsection.2.4}}
\@writefile{toc}{\contentsline {subsection}{\numberline {2.5}Postgame Analysis}{7}{subsection.2.5}}
\citation{kerr2011feasibility,canossa2013meaning,smith2011unsupervised,orkin2011semi,li2013discovery}
\citation{thurau2010analyzing}
\citation{gow2012unsupervised}
\citation{teofilo2013identifying}
\citation{steinhaus1956division}
\@writefile{toc}{\contentsline {subsubsection}{\numberline {2.5.1}Extract}{8}{subsubsection.2.5.1}}
\@writefile{toc}{\contentsline {subsubsection}{\numberline {2.5.2}Transform}{8}{subsubsection.2.5.2}}
\@writefile{toc}{\contentsline {subsubsection}{\numberline {2.5.3}k-means Methodology}{8}{subsubsection.2.5.3}}
\@writefile{toc}{\contentsline {subsubsection}{\numberline {2.5.4}Encode/Translate}{8}{subsubsection.2.5.4}}
\@writefile{toc}{\contentsline {subsubsection}{\numberline {2.5.5}Score}{8}{subsubsection.2.5.5}}
\@writefile{toc}{\contentsline {subsubsection}{\numberline {2.5.6}Cluster}{8}{subsubsection.2.5.6}}
\@writefile{toc}{\contentsline {subsubsection}{\numberline {2.5.7}K Exploration}{8}{subsubsection.2.5.7}}
\citation{arya1998optimal}
\citation{mclachlan1988mixture}
\@writefile{lot}{\contentsline {table}{\numberline {6}{\ignorespaces Scores Matrix\relax }}{9}{table.caption.22}}
\newlabel{tab:scores}{{6}{9}{Scores Matrix\relax }{table.caption.22}{}}
\@writefile{toc}{\contentsline {subsubsection}{\numberline {2.5.8}K-NN Query by Game Id}{9}{subsubsection.2.5.8}}
\@writefile{toc}{\contentsline {subsubsection}{\numberline {2.5.9}Mixture Model Methodology}{9}{subsubsection.2.5.9}}
\@writefile{toc}{\contentsline {section}{\numberline {3}Results}{9}{section.3}}
\@writefile{toc}{\contentsline {subsection}{\numberline {3.1}Bayesian Evidence Tracing Results}{9}{subsection.3.1}}
\newlabel{sec:results}{{3.1}{9}{Bayesian Evidence Tracing Results}{subsection.3.1}{}}
\citation{arya1998optimal}
\@writefile{lof}{\contentsline {figure}{\numberline {6}{\ignorespaces Engagement (EN) Sub-Skill Level Probability over Time for a Single Game\relax }}{10}{figure.caption.23}}
\newlabel{fig:game114en-mat}{{6}{10}{Engagement (EN) Sub-Skill Level Probability over Time for a Single Game\relax }{figure.caption.23}{}}
\@writefile{lot}{\contentsline {table}{\numberline {7}{\ignorespaces CPS Data Cluster Counts\relax }}{10}{table.caption.26}}
\newlabel{tab:clusterdata1}{{7}{10}{CPS Data Cluster Counts\relax }{table.caption.26}{}}
\@writefile{toc}{\contentsline {subsection}{\numberline {3.2}Clustering Results}{10}{subsection.3.2}}
\@writefile{toc}{\contentsline {subsubsection}{\numberline {3.2.1}k-means/K-NN Results}{10}{subsubsection.3.2.1}}
\@writefile{toc}{\contentsline {subsubsection}{\numberline {3.2.2}Cluster Characteristics}{10}{subsubsection.3.2.2}}
\@writefile{lot}{\contentsline {table}{\numberline {8}{\ignorespaces CPS Max/Min Mean Scores for the 5 Domains\relax }}{10}{table.caption.27}}
\newlabel{tab:clusterdata2}{{8}{10}{CPS Max/Min Mean Scores for the 5 Domains\relax }{table.caption.27}{}}
\@writefile{toc}{\contentsline {subsubsection}{\numberline {3.2.3}K-NN Query by Game Id}{10}{subsubsection.3.2.3}}
\@writefile{lof}{\contentsline {figure}{\numberline {7}{\ignorespaces Probability (y-axis) over time (x-axis) for a single game (game id = 114) (Blue=High,White=Med,Orange=Low). Engagement (EN), Monitor Understanding (MU), Feature Identification (FI), Evaluation (EV), Strategy(S) \relax }}{11}{figure.caption.24}}
\newlabel{fig:game114en}{{7}{11}{Probability (y-axis) over time (x-axis) for a single game (game id = 114) (Blue=High,White=Med,Orange=Low). Engagement (EN), Monitor Understanding (MU), Feature Identification (FI), Evaluation (EV), Strategy(S) \relax }{figure.caption.24}{}}
\@writefile{lof}{\contentsline {figure}{\numberline {8}{\ignorespaces CPS Data Cluster Counts\relax }}{11}{figure.caption.25}}
\newlabel{fig:counts}{{8}{11}{CPS Data Cluster Counts\relax }{figure.caption.25}{}}
\@writefile{lof}{\contentsline {figure}{\numberline {9}{\ignorespaces CPS Data Cluster Domain Score Means \relax }}{11}{figure.caption.28}}
\newlabel{fig:means}{{9}{11}{CPS Data Cluster Domain Score Means \relax }{figure.caption.28}{}}
\@writefile{lof}{\contentsline {figure}{\numberline {10}{\ignorespaces Tableau Visualization of Scores By Cluster. Each color/column is a cluster. A dot represents a game score in CPS sub-skill \{EN,FI,MU\}. A black line shows a cluster mean score.\relax }}{12}{figure.caption.29}}
\newlabel{fig:tab3}{{10}{12}{Tableau Visualization of Scores By Cluster. Each color/column is a cluster. A dot represents a game score in CPS sub-skill \{EN,FI,MU\}. A black line shows a cluster mean score.\relax }{figure.caption.29}{}}
\@writefile{lot}{\contentsline {table}{\numberline {9}{\ignorespaces K-NN query results for similar games\relax }}{12}{table.caption.30}}
\newlabel{tab:knnsim}{{9}{12}{K-NN query results for similar games\relax }{table.caption.30}{}}
\@writefile{toc}{\contentsline {subsubsection}{\numberline {3.2.4}Mixture Model Results}{12}{figure.caption.31}}
\@writefile{lof}{\contentsline {figure}{\numberline {11}{\ignorespaces EM Clustering Visualization\relax }}{12}{figure.caption.31}}
\newlabel{fig:em1}{{11}{12}{EM Clustering Visualization\relax }{figure.caption.31}{}}
\bibstyle{ACM-Reference-Format}
\bibdata{test}
\bibcite{arya1998optimal}{{1}{1998}{{Arya et~al\unhbox \voidb@x \hbox {.}}}{{Arya, Mount, Netanyahu, Silverman, and Wu}}}
\bibcite{ashton2004six}{{2}{2004}{{Ashton et~al\unhbox \voidb@x \hbox {.}}}{{Ashton, Lee, Perugini, Szarota, De~Vries, Di~Blas, Boies, and De~Raad}}}
\bibcite{bauckhage2015clustering}{{3}{2015}{{Bauckhage et~al\unhbox \voidb@x \hbox {.}}}{{Bauckhage, Drachen, and Sifa}}}
\bibcite{mr1763essay}{{4}{1763}{{Bayes and Price}}{{Bayes and Price}}}
\bibcite{bazaldua2015convergence}{{5}{2015}{{Bazaldua et~al\unhbox \voidb@x \hbox {.}}}{{Bazaldua, Khan, von Davier, Hao, Liu, and Wang}}}
\bibcite{bergnerjuly2015}{{6}{July}{{Bergner et~al\unhbox \voidb@x \hbox {.}}}{{Bergner, Andrews, Zhu, and Kitchen}}}
\bibcite{camara2015beyond}{{7}{2015}{{Camara et~al\unhbox \voidb@x \hbox {.}}}{{Camara, O'Connor, Mattern, and Hanson}}}
\bibcite{canossa2013meaning}{{8}{2013}{{Canossa}}{{Canossa}}}
\bibcite{corbett1994knowledge}{{9}{1994}{{Corbett and Anderson}}{{Corbett and Anderson}}}
\bibcite{davey2015psychometric}{{10}{2015}{{Davey et~al\unhbox \voidb@x \hbox {.}}}{{Davey, Ferrara, Shavelson, Holland, Webb, and Wise}}}
\bibcite{davier2013collaborative}{{11}{2013}{{Davier and Halpin}}{{Davier and Halpin}}}
\bibcite{desmarais2012review}{{12}{2012}{{Desmarais and Baker}}{{Desmarais and Baker}}}
\bibcite{gow2012unsupervised}{{13}{2012}{{Gow et~al\unhbox \voidb@x \hbox {.}}}{{Gow, Baumgarten, Cairns, Colton, and Miller}}}
\bibcite{griffin2012assessment}{{14}{2012}{{Griffin et~al\unhbox \voidb@x \hbox {.}}}{{Griffin, McGaw, and Care}}}
\bibcite{haocollaborative}{{15}{2016}{{Hao et~al\unhbox \voidb@x \hbox {.}}}{{Hao, Liu, von Davier, Kyllonen, and Kitchen}}}
\@writefile{lof}{\contentsline {figure}{\numberline {12}{\ignorespaces EM Contour Plot\relax }}{13}{figure.caption.32}}
\newlabel{fig:em2}{{12}{13}{EM Contour Plot\relax }{figure.caption.32}{}}
\@writefile{toc}{\contentsline {section}{\numberline {4}Discussion}{13}{section.4}}
\@writefile{toc}{\contentsline {section}{References}{13}{section*.34}}
\bibcite{he2017collaborative}{{16}{2017}{{He et~al\unhbox \voidb@x \hbox {.}}}{{He, von Davier, Greiff, Steinhauer, and Borysewicz}}}
\bibcite{kerr2015using}{{17}{2015}{{Kerr}}{{Kerr}}}
\bibcite{kerr2012identifying}{{18}{2012}{{Kerr and Chung}}{{Kerr and Chung}}}
\bibcite{kerr2011feasibility}{{19}{2011}{{Kerr et~al\unhbox \voidb@x \hbox {.}}}{{Kerr, Chung, and Iseli}}}
\bibcite{khan2015}{{20}{2015}{{Khan}}{{Khan}}}
\bibcite{khan2013hierarchical}{{21}{2013}{{Khan et~al\unhbox \voidb@x \hbox {.}}}{{Khan, Cheng, and Kumar}}}
\bibcite{lamar2014models}{{22}{2014}{{LaMar}}{{LaMar}}}
\bibcite{levy2014dynamic}{{23}{2014}{{Levy}}{{Levy}}}
\bibcite{li2013discovery}{{24}{2013}{{Li et~al\unhbox \voidb@x \hbox {.}}}{{Li, Munoz-Avila, Ke, Symborski, and Alonso}}}
\bibcite{liu2015tough}{{25}{2015}{{Liu et~al\unhbox \voidb@x \hbox {.}}}{{Liu, Hao, von Davier, Kyllonen, and Zapata-Rivera}}}
\bibcite{mclachlan1988mixture}{{26}{1988}{{McLachlan and Basford}}{{McLachlan and Basford}}}
\bibcite{mislevy2014psychometric}{{27}{2014}{{Mislevy et~al\unhbox \voidb@x \hbox {.}}}{{Mislevy, Oranje, Bauer, von Davier, Hao, Corrigan, Hoffman, DiCerbo, and John}}}
\bibcite{mislevy2003focus}{{28}{2003}{{Mislevy et~al\unhbox \voidb@x \hbox {.}}}{{Mislevy, Steinberg, and Almond}}}
\bibcite{mislevy2006concepts}{{29}{2006}{{Mislevy et~al\unhbox \voidb@x \hbox {.}}}{{Mislevy, Steinberg, Almond, and Lukas}}}
\bibcite{oliveri2017literature}{{30}{2017}{{Oliveri et~al\unhbox \voidb@x \hbox {.}}}{{Oliveri, Lawless, and Molloy}}}
\bibcite{naep2014}{{31}{2014}{{O\`Neil}}{{O\`Neil}}}
\bibcite{orkin2011semi}{{32}{2011}{{Orkin and Roy}}{{Orkin and Roy}}}
\bibcite{paulhus2007self}{{33}{2007}{{Paulhus et~al\unhbox \voidb@x \hbox {.}}}{{Paulhus, Vazire, Robins, Fraley, and Krueger}}}
\bibcite{pisa2013results}{{34}{2013}{{{PISA, OECD}}}{{{PISA, OECD}}}}
\bibcite{robins1997quest}{{35}{1997}{{Robins and John}}{{Robins and John}}}
\bibcite{romero2009evolutionary}{{36}{2009}{{Romero et~al\unhbox \voidb@x \hbox {.}}}{{Romero, Gonz{\'a}lez, Ventura, Del~Jes{\'u}s, and Herrera}}}
\bibcite{sanchez2011problem}{{37}{2011}{{S{\'a}nchez and Olivares}}{{S{\'a}nchez and Olivares}}}
\bibcite{shute2008you}{{38}{2008a}{{Shute et~al\unhbox \voidb@x \hbox {.}}}{{Shute, Hansen, and Almond}}}
\bibcite{shute2008monitoring}{{39}{2008b}{{Shute et~al\unhbox \voidb@x \hbox {.}}}{{Shute, Ventura, Bauer, and Zapata-Rivera}}}
\bibcite{smith2011unsupervised}{{40}{2011}{{Smith}}{{Smith}}}
\bibcite{soller2007applications}{{41}{2007}{{Soller and Stevens}}{{Soller and Stevens}}}
\bibcite{steinhaus1956division}{{42}{1956}{{Steinhaus}}{{Steinhaus}}}
\bibcite{sung2013collaborative}{{43}{2013}{{Sung and Hwang}}{{Sung and Hwang}}}
\bibcite{teofilo2013identifying}{{44}{2013}{{Te{\'o}filo and Reis}}{{Te{\'o}filo and Reis}}}
\bibcite{thurau2010analyzing}{{45}{2010}{{Thurau and Bauckhage}}{{Thurau and Bauckhage}}}
\bibcite{vanlehn2008intelligent}{{46}{2008}{{VanLehn}}{{VanLehn}}}
\bibcite{vondavier2015a}{{47}{2015}{{Von~Davier}}{{Von~Davier}}}
\bibcite{vondaviers2016}{{48}{July}{{von Davier et~al\unhbox \voidb@x \hbox {.}}}{{von Davier, van~der Schaar, and Baraniuk}}}
\bibcite{vondavier2017}{{49}{2017}{{von Davier et~al\unhbox \voidb@x \hbox {.}}}{{von Davier, Zhu, and Kyllonen}}}
\bibcite{zhang2015}{{50}{July}{{Zhang et~al\unhbox \voidb@x \hbox {.}}}{{Zhang, Hao, Li, and P.}}}
\newlabel{tocindent-1}{0pt}
\newlabel{tocindent0}{0pt}
\newlabel{tocindent1}{4.185pt}
\newlabel{tocindent2}{10.34999pt}
\newlabel{tocindent3}{18.198pt}
\newlabel{TotPages}{{14}{14}{}{page.14}{}}
