PWD /Users/kurtpeterschmidt/projects/frontiers-research-paper/journal/Andrwe Frontiers/Frontiers_Final
INPUT /usr/local/texlive/2017/texmf.cnf
INPUT /usr/local/texlive/2017/texmf-dist/web2c/texmf.cnf
INPUT /usr/local/texlive/2017/texmf-var/web2c/pdftex/pdflatex.fmt
INPUT /Users/kurtpeterschmidt/projects/frontiers-research-paper/journal/Andrwe Frontiers/Frontiers_Final/avd_frontiers.tex
OUTPUT avd_frontiers.log
INPUT frontiersSCNS.cls
INPUT frontiersSCNS.cls
INPUT /usr/local/texlive/2017/texmf-dist/tex/latex/base/inputenc.sty
INPUT /usr/local/texlive/2017/texmf-dist/tex/latex/base/inputenc.sty
INPUT /usr/local/texlive/2017/texmf-dist/tex/latex/base/utf8.def
INPUT /usr/local/texlive/2017/texmf-dist/tex/latex/base/utf8.def
INPUT /usr/local/texlive/2017/texmf-dist/tex/latex/base/t1enc.dfu
INPUT /usr/local/texlive/2017/texmf-dist/tex/latex/base/t1enc.dfu
INPUT /usr/local/texlive/2017/texmf-dist/tex/latex/base/ot1enc.dfu
INPUT /usr/local/texlive/2017/texmf-dist/tex/latex/base/ot1enc.dfu
INPUT /usr/local/texlive/2017/texmf-dist/tex/latex/base/omsenc.dfu
INPUT /usr/local/texlive/2017/texmf-dist/tex/latex/base/omsenc.dfu
INPUT /usr/local/texlive/2017/texmf-dist/tex/latex/crop/crop.sty
INPUT /usr/local/texlive/2017/texmf-dist/tex/latex/crop/crop.sty
INPUT /usr/local/texlive/2017/texmf-dist/tex/latex/graphics/color.sty
INPUT /usr/local/texlive/2017/texmf-dist/tex/latex/graphics/color.sty
INPUT /usr/local/texlive/2017/texmf-dist/tex/latex/graphics/color.sty
INPUT /usr/local/texlive/2017/texmf-dist/tex/latex/graphics-cfg/color.cfg
INPUT /usr/local/texlive/2017/texmf-dist/tex/latex/graphics-cfg/color.cfg
INPUT /usr/local/texlive/2017/texmf-dist/tex/latex/graphics-def/pdftex.def
INPUT /usr/local/texlive/2017/texmf-dist/tex/latex/graphics-def/pdftex.def
INPUT /usr/local/texlive/2017/texmf-dist/tex/latex/graphics/graphics.sty
INPUT /usr/local/texlive/2017/texmf-dist/tex/latex/graphics/graphics.sty
INPUT /usr/local/texlive/2017/texmf-dist/tex/latex/graphics/graphics.sty
INPUT /usr/local/texlive/2017/texmf-dist/tex/latex/graphics/trig.sty
INPUT /usr/local/texlive/2017/texmf-dist/tex/latex/graphics/trig.sty
INPUT /usr/local/texlive/2017/texmf-dist/tex/latex/graphics-cfg/graphics.cfg
INPUT /usr/local/texlive/2017/texmf-dist/tex/latex/graphics-cfg/graphics.cfg
INPUT /usr/local/texlive/2017/texmf-dist/tex/xelatex/xetexconfig/crop.cfg
INPUT /usr/local/texlive/2017/texmf-dist/tex/xelatex/xetexconfig/crop.cfg
INPUT /usr/local/texlive/2017/texmf-dist/tex/latex/graphics/graphicx.sty
INPUT /usr/local/texlive/2017/texmf-dist/tex/latex/graphics/graphicx.sty
INPUT /usr/local/texlive/2017/texmf-dist/tex/latex/graphics/keyval.sty
INPUT /usr/local/texlive/2017/texmf-dist/tex/latex/graphics/keyval.sty
INPUT /usr/local/texlive/2017/texmf-dist/tex/latex/amsmath/amsmath.sty
INPUT /usr/local/texlive/2017/texmf-dist/tex/latex/amsmath/amsmath.sty
INPUT /usr/local/texlive/2017/texmf-dist/tex/latex/amsmath/amstext.sty
INPUT /usr/local/texlive/2017/texmf-dist/tex/latex/amsmath/amstext.sty
INPUT /usr/local/texlive/2017/texmf-dist/tex/latex/amsmath/amsgen.sty
INPUT /usr/local/texlive/2017/texmf-dist/tex/latex/amsmath/amsgen.sty
INPUT /usr/local/texlive/2017/texmf-dist/tex/latex/amsmath/amsbsy.sty
INPUT /usr/local/texlive/2017/texmf-dist/tex/latex/amsmath/amsbsy.sty
INPUT /usr/local/texlive/2017/texmf-dist/tex/latex/amsmath/amsopn.sty
INPUT /usr/local/texlive/2017/texmf-dist/tex/latex/amsmath/amsopn.sty
INPUT /usr/local/texlive/2017/texmf-dist/tex/latex/tools/array.sty
INPUT /usr/local/texlive/2017/texmf-dist/tex/latex/tools/array.sty
INPUT /usr/local/texlive/2017/texmf-dist/tex/latex/amsfonts/amssymb.sty
INPUT /usr/local/texlive/2017/texmf-dist/tex/latex/amsfonts/amssymb.sty
INPUT /usr/local/texlive/2017/texmf-dist/tex/latex/amsfonts/amsfonts.sty
INPUT /usr/local/texlive/2017/texmf-dist/tex/latex/amsfonts/amsfonts.sty
INPUT /usr/local/texlive/2017/texmf-dist/tex/latex/sttools/flushend.sty
INPUT /usr/local/texlive/2017/texmf-dist/tex/latex/sttools/flushend.sty
INPUT /usr/local/texlive/2017/texmf-dist/tex/latex/etoolbox/etoolbox.sty
INPUT /usr/local/texlive/2017/texmf-dist/tex/latex/etoolbox/etoolbox.sty
INPUT stfloats.sty
INPUT stfloats.sty
INPUT /usr/local/texlive/2017/texmf-dist/tex/latex/amscls/amsthm.sty
INPUT /usr/local/texlive/2017/texmf-dist/tex/latex/amscls/amsthm.sty
INPUT /usr/local/texlive/2017/texmf-dist/tex/latex/changepage/chngpage.sty
INPUT /usr/local/texlive/2017/texmf-dist/tex/latex/changepage/chngpage.sty
INPUT /usr/local/texlive/2017/texmf-dist/tex/latex/psnfss/times.sty
INPUT /usr/local/texlive/2017/texmf-dist/tex/latex/psnfss/times.sty
INPUT /usr/local/texlive/2017/texmf-dist/tex/latex/datetime/datetime.sty
INPUT /usr/local/texlive/2017/texmf-dist/tex/latex/datetime/datetime.sty
INPUT /usr/local/texlive/2017/texmf-dist/tex/latex/fmtcount/fmtcount.sty
INPUT /usr/local/texlive/2017/texmf-dist/tex/latex/fmtcount/fmtcount.sty
INPUT /usr/local/texlive/2017/texmf-dist/tex/latex/base/ifthen.sty
INPUT /usr/local/texlive/2017/texmf-dist/tex/latex/base/ifthen.sty
INPUT /usr/local/texlive/2017/texmf-dist/tex/latex/xkeyval/xkeyval.sty
INPUT /usr/local/texlive/2017/texmf-dist/tex/latex/xkeyval/xkeyval.sty
INPUT /usr/local/texlive/2017/texmf-dist/tex/generic/xkeyval/xkeyval.tex
INPUT /usr/local/texlive/2017/texmf-dist/tex/generic/xkeyval/xkvutils.tex
INPUT /usr/local/texlive/2017/texmf-dist/tex/latex/fmtcount/fcprefix.sty
INPUT /usr/local/texlive/2017/texmf-dist/tex/latex/fmtcount/fcprefix.sty
INPUT /usr/local/texlive/2017/texmf-dist/tex/latex/fmtcount/fcnumparser.sty
INPUT /usr/local/texlive/2017/texmf-dist/tex/latex/fmtcount/fcnumparser.sty
INPUT /usr/local/texlive/2017/texmf-dist/tex/generic/ifxetex/ifxetex.sty
INPUT /usr/local/texlive/2017/texmf-dist/tex/generic/ifxetex/ifxetex.sty
INPUT /usr/local/texlive/2017/texmf-dist/tex/latex/fmtcount/fc-english.def
INPUT /usr/local/texlive/2017/texmf-dist/tex/latex/fmtcount/fc-english.def
INPUT /usr/local/texlive/2017/texmf-dist/tex/latex/datetime/datetime-defaults.sty
INPUT /usr/local/texlive/2017/texmf-dist/tex/latex/datetime/datetime-defaults.sty
INPUT /usr/local/texlive/2017/texmf-dist/tex/latex/parskip/parskip.sty
INPUT /usr/local/texlive/2017/texmf-dist/tex/latex/parskip/parskip.sty
INPUT /usr/local/texlive/2017/texmf-dist/tex/latex/oberdiek/epstopdf.sty
INPUT /usr/local/texlive/2017/texmf-dist/tex/latex/oberdiek/epstopdf.sty
INPUT /usr/local/texlive/2017/texmf-dist/tex/latex/oberdiek/epstopdf-base.sty
INPUT /usr/local/texlive/2017/texmf-dist/tex/latex/oberdiek/epstopdf-base.sty
INPUT /usr/local/texlive/2017/texmf-dist/tex/generic/oberdiek/infwarerr.sty
INPUT /usr/local/texlive/2017/texmf-dist/tex/generic/oberdiek/infwarerr.sty
INPUT /usr/local/texlive/2017/texmf-dist/tex/latex/oberdiek/grfext.sty
INPUT /usr/local/texlive/2017/texmf-dist/tex/latex/oberdiek/grfext.sty
INPUT /usr/local/texlive/2017/texmf-dist/tex/generic/oberdiek/kvdefinekeys.sty
INPUT /usr/local/texlive/2017/texmf-dist/tex/generic/oberdiek/kvdefinekeys.sty
INPUT /usr/local/texlive/2017/texmf-dist/tex/generic/oberdiek/ltxcmds.sty
INPUT /usr/local/texlive/2017/texmf-dist/tex/generic/oberdiek/ltxcmds.sty
INPUT /usr/local/texlive/2017/texmf-dist/tex/latex/oberdiek/kvoptions.sty
INPUT /usr/local/texlive/2017/texmf-dist/tex/latex/oberdiek/kvoptions.sty
INPUT /usr/local/texlive/2017/texmf-dist/tex/generic/oberdiek/kvsetkeys.sty
INPUT /usr/local/texlive/2017/texmf-dist/tex/generic/oberdiek/kvsetkeys.sty
INPUT /usr/local/texlive/2017/texmf-dist/tex/generic/oberdiek/etexcmds.sty
INPUT /usr/local/texlive/2017/texmf-dist/tex/generic/oberdiek/etexcmds.sty
INPUT /usr/local/texlive/2017/texmf-dist/tex/generic/oberdiek/ifluatex.sty
INPUT /usr/local/texlive/2017/texmf-dist/tex/generic/oberdiek/ifluatex.sty
INPUT /usr/local/texlive/2017/texmf-dist/tex/generic/oberdiek/pdftexcmds.sty
INPUT /usr/local/texlive/2017/texmf-dist/tex/generic/oberdiek/pdftexcmds.sty
INPUT /usr/local/texlive/2017/texmf-dist/tex/generic/oberdiek/ifpdf.sty
INPUT /usr/local/texlive/2017/texmf-dist/tex/generic/oberdiek/ifpdf.sty
INPUT /usr/local/texlive/2017/texmf-dist/tex/latex/latexconfig/epstopdf-sys.cfg
INPUT /usr/local/texlive/2017/texmf-dist/tex/latex/latexconfig/epstopdf-sys.cfg
INPUT /usr/local/texlive/2017/texmf-dist/tex/latex/xcolor/xcolor.sty
INPUT /usr/local/texlive/2017/texmf-dist/tex/latex/xcolor/xcolor.sty
INPUT /usr/local/texlive/2017/texmf-dist/tex/latex/graphics-cfg/color.cfg
INPUT /usr/local/texlive/2017/texmf-dist/tex/latex/graphics-cfg/color.cfg
INPUT /usr/local/texlive/2017/texmf-dist/tex/latex/graphics/dvipsnam.def
INPUT /usr/local/texlive/2017/texmf-dist/tex/latex/graphics/dvipsnam.def
INPUT /usr/local/texlive/2017/texmf-dist/tex/latex/caption/caption.sty
INPUT /usr/local/texlive/2017/texmf-dist/tex/latex/caption/caption.sty
INPUT /usr/local/texlive/2017/texmf-dist/tex/latex/caption/caption3.sty
INPUT /usr/local/texlive/2017/texmf-dist/tex/latex/caption/caption3.sty
INPUT /usr/local/texlive/2017/texmf-dist/tex/latex/caption/subcaption.sty
INPUT /usr/local/texlive/2017/texmf-dist/tex/latex/caption/subcaption.sty
INPUT /usr/local/texlive/2017/texmf-dist/fonts/map/fontname/texfonts.map
INPUT /usr/local/texlive/2017/texmf-dist/fonts/tfm/public/cm/cmr12.tfm
INPUT /usr/local/texlive/2017/texmf-dist/tex/latex/natbib/natbib.sty
INPUT /usr/local/texlive/2017/texmf-dist/tex/latex/natbib/natbib.sty
INPUT /usr/local/texlive/2017/texmf-dist/tex/latex/setspace/setspace.sty
INPUT /usr/local/texlive/2017/texmf-dist/tex/latex/setspace/setspace.sty
INPUT /usr/local/texlive/2017/texmf-dist/tex/latex/url/url.sty
INPUT /usr/local/texlive/2017/texmf-dist/tex/latex/url/url.sty
INPUT /usr/local/texlive/2017/texmf-dist/tex/latex/hyperref/hyperref.sty
INPUT /usr/local/texlive/2017/texmf-dist/tex/latex/hyperref/hyperref.sty
INPUT /usr/local/texlive/2017/texmf-dist/tex/generic/oberdiek/hobsub-hyperref.sty
INPUT /usr/local/texlive/2017/texmf-dist/tex/generic/oberdiek/hobsub-hyperref.sty
INPUT /usr/local/texlive/2017/texmf-dist/tex/generic/oberdiek/hobsub-hyperref.sty
INPUT /usr/local/texlive/2017/texmf-dist/tex/generic/oberdiek/hobsub-generic.sty
INPUT /usr/local/texlive/2017/texmf-dist/tex/generic/oberdiek/hobsub-generic.sty
INPUT /usr/local/texlive/2017/texmf-dist/tex/latex/oberdiek/auxhook.sty
INPUT /usr/local/texlive/2017/texmf-dist/tex/latex/oberdiek/auxhook.sty
INPUT /usr/local/texlive/2017/texmf-dist/tex/latex/hyperref/pd1enc.def
INPUT /usr/local/texlive/2017/texmf-dist/tex/latex/hyperref/pd1enc.def
INPUT /usr/local/texlive/2017/texmf-dist/tex/latex/latexconfig/hyperref.cfg
INPUT /usr/local/texlive/2017/texmf-dist/tex/latex/latexconfig/hyperref.cfg
INPUT /usr/local/texlive/2017/texmf-dist/tex/latex/hyperref/hpdftex.def
INPUT /usr/local/texlive/2017/texmf-dist/tex/latex/hyperref/hpdftex.def
INPUT /usr/local/texlive/2017/texmf-dist/tex/latex/oberdiek/rerunfilecheck.sty
INPUT /usr/local/texlive/2017/texmf-dist/tex/latex/oberdiek/rerunfilecheck.sty
INPUT /usr/local/texlive/2017/texmf-dist/tex/latex/lineno/lineno.sty
INPUT /usr/local/texlive/2017/texmf-dist/tex/latex/lineno/lineno.sty
INPUT /usr/local/texlive/2017/texmf-dist/tex/latex/microtype/microtype.sty
INPUT /usr/local/texlive/2017/texmf-dist/tex/latex/microtype/microtype.sty
INPUT /usr/local/texlive/2017/texmf-dist/tex/latex/microtype/microtype-pdftex.def
INPUT /usr/local/texlive/2017/texmf-dist/tex/latex/microtype/microtype-pdftex.def
INPUT /usr/local/texlive/2017/texmf-dist/tex/latex/microtype/microtype.cfg
INPUT /usr/local/texlive/2017/texmf-dist/tex/latex/microtype/microtype.cfg
INPUT /usr/local/texlive/2017/texmf-dist/tex/latex/microtype/microtype.cfg
INPUT avd_frontiers.aux
INPUT avd_frontiers.aux
OUTPUT avd_frontiers.aux
INPUT /usr/local/texlive/2017/texmf-dist/tex/latex/psnfss/ot1ptm.fd
INPUT /usr/local/texlive/2017/texmf-dist/tex/latex/psnfss/ot1ptm.fd
INPUT /usr/local/texlive/2017/texmf-dist/fonts/tfm/adobe/times/ptmr7t.tfm
INPUT /usr/local/texlive/2017/texmf-dist/tex/context/base/mkii/supp-pdf.mkii
INPUT /usr/local/texlive/2017/texmf-dist/tex/context/base/mkii/supp-pdf.mkii
INPUT /usr/local/texlive/2017/texmf-dist/tex/latex/hyperref/nameref.sty
INPUT /usr/local/texlive/2017/texmf-dist/tex/latex/hyperref/nameref.sty
INPUT /usr/local/texlive/2017/texmf-dist/tex/generic/oberdiek/gettitlestring.sty
INPUT /usr/local/texlive/2017/texmf-dist/tex/generic/oberdiek/gettitlestring.sty
INPUT avd_frontiers.out
INPUT avd_frontiers.out
INPUT avd_frontiers.out
INPUT avd_frontiers.out
OUTPUT avd_frontiers.pdf
INPUT ./avd_frontiers.out
INPUT ./avd_frontiers.out
OUTPUT avd_frontiers.out
INPUT /usr/local/texlive/2017/texmf-dist/tex/latex/microtype/mt-ptm.cfg
INPUT /usr/local/texlive/2017/texmf-dist/tex/latex/microtype/mt-ptm.cfg
INPUT /usr/local/texlive/2017/texmf-dist/tex/latex/psnfss/ot1phv.fd
INPUT /usr/local/texlive/2017/texmf-dist/tex/latex/psnfss/ot1phv.fd
INPUT /usr/local/texlive/2017/texmf-dist/fonts/tfm/adobe/helvetic/phvr7t.tfm
INPUT ./logo1.jpg
INPUT ./logo1.jpg
INPUT ./logo1.jpg
INPUT /usr/local/texlive/2017/texmf-dist/fonts/tfm/adobe/times/ptmr7t.tfm
INPUT /usr/local/texlive/2017/texmf-dist/fonts/tfm/adobe/helvetic/phvr7t.tfm
INPUT /usr/local/texlive/2017/texmf-dist/fonts/tfm/adobe/helvetic/phvb7t.tfm
INPUT /usr/local/texlive/2017/texmf-dist/fonts/tfm/adobe/helvetic/phvb7t.tfm
INPUT /usr/local/texlive/2017/texmf-dist/tex/latex/microtype/mt-cmr.cfg
INPUT /usr/local/texlive/2017/texmf-dist/tex/latex/microtype/mt-cmr.cfg
INPUT /usr/local/texlive/2017/texmf-dist/fonts/tfm/public/cm/cmr9.tfm
INPUT /usr/local/texlive/2017/texmf-dist/fonts/tfm/public/cm/cmmi12.tfm
INPUT /usr/local/texlive/2017/texmf-dist/fonts/tfm/public/cm/cmmi9.tfm
INPUT /usr/local/texlive/2017/texmf-dist/fonts/tfm/public/cm/cmsy10.tfm
INPUT /usr/local/texlive/2017/texmf-dist/fonts/tfm/public/cm/cmsy9.tfm
INPUT /usr/local/texlive/2017/texmf-dist/fonts/tfm/public/cm/cmex10.tfm
INPUT /usr/local/texlive/2017/texmf-dist/fonts/tfm/public/amsfonts/cmextra/cmex9.tfm
INPUT /usr/local/texlive/2017/texmf-dist/fonts/tfm/public/amsfonts/cmextra/cmex7.tfm
INPUT /usr/local/texlive/2017/texmf-dist/tex/latex/amsfonts/umsa.fd
INPUT /usr/local/texlive/2017/texmf-dist/tex/latex/amsfonts/umsa.fd
INPUT /usr/local/texlive/2017/texmf-dist/fonts/tfm/public/amsfonts/symbols/msam10.tfm
INPUT /usr/local/texlive/2017/texmf-dist/tex/latex/microtype/mt-msa.cfg
INPUT /usr/local/texlive/2017/texmf-dist/tex/latex/microtype/mt-msa.cfg
INPUT /usr/local/texlive/2017/texmf-dist/fonts/tfm/public/amsfonts/symbols/msam10.tfm
INPUT /usr/local/texlive/2017/texmf-dist/fonts/tfm/public/amsfonts/symbols/msam7.tfm
INPUT /usr/local/texlive/2017/texmf-dist/tex/latex/amsfonts/umsb.fd
INPUT /usr/local/texlive/2017/texmf-dist/tex/latex/amsfonts/umsb.fd
INPUT /usr/local/texlive/2017/texmf-dist/fonts/tfm/public/amsfonts/symbols/msbm10.tfm
INPUT /usr/local/texlive/2017/texmf-dist/tex/latex/microtype/mt-msb.cfg
INPUT /usr/local/texlive/2017/texmf-dist/tex/latex/microtype/mt-msb.cfg
INPUT /usr/local/texlive/2017/texmf-dist/fonts/tfm/public/amsfonts/symbols/msbm10.tfm
INPUT /usr/local/texlive/2017/texmf-dist/fonts/tfm/public/amsfonts/symbols/msbm7.tfm
INPUT /usr/local/texlive/2017/texmf-dist/fonts/tfm/adobe/helvetic/phvro7t.tfm
INPUT /usr/local/texlive/2017/texmf-dist/fonts/tfm/adobe/helvetic/phvb7t.tfm
INPUT /usr/local/texlive/2017/texmf-dist/fonts/tfm/adobe/helvetic/phvb7t.tfm
INPUT /usr/local/texlive/2017/texmf-dist/fonts/tfm/adobe/helvetic/phvr7t.tfm
INPUT /usr/local/texlive/2017/texmf-dist/fonts/tfm/adobe/helvetic/phvr7t.tfm
INPUT /usr/local/texlive/2017/texmf-dist/fonts/tfm/adobe/helvetic/phvb7t.tfm
INPUT /usr/local/texlive/2017/texmf-dist/fonts/vf/adobe/helvetic/phvr7t.vf
INPUT /usr/local/texlive/2017/texmf-dist/fonts/tfm/adobe/helvetic/phvr8r.tfm
INPUT /usr/local/texlive/2017/texmf-var/fonts/map/pdftex/updmap/pdftex.map
INPUT /usr/local/texlive/2017/texmf-dist/fonts/vf/adobe/helvetic/phvb7t.vf
INPUT /usr/local/texlive/2017/texmf-dist/fonts/tfm/adobe/helvetic/phvb8r.tfm
INPUT /usr/local/texlive/2017/texmf-dist/fonts/vf/adobe/helvetic/phvb7t.vf
INPUT /usr/local/texlive/2017/texmf-dist/fonts/tfm/adobe/helvetic/phvb8r.tfm
INPUT /usr/local/texlive/2017/texmf-dist/fonts/vf/adobe/helvetic/phvro7t.vf
INPUT /usr/local/texlive/2017/texmf-dist/fonts/tfm/adobe/helvetic/phvro8r.tfm
INPUT /usr/local/texlive/2017/texmf-dist/fonts/vf/adobe/helvetic/phvr7t.vf
INPUT /usr/local/texlive/2017/texmf-dist/fonts/tfm/adobe/helvetic/phvr8r.tfm
INPUT /usr/local/texlive/2017/texmf-dist/fonts/vf/adobe/helvetic/phvb7t.vf
INPUT /usr/local/texlive/2017/texmf-dist/fonts/tfm/adobe/helvetic/phvb8r.tfm
INPUT /usr/local/texlive/2017/texmf-dist/fonts/vf/adobe/helvetic/phvb7t.vf
INPUT /usr/local/texlive/2017/texmf-dist/fonts/tfm/adobe/helvetic/phvb8r.tfm
INPUT /usr/local/texlive/2017/texmf-dist/fonts/vf/adobe/times/ptmr7t.vf
INPUT /usr/local/texlive/2017/texmf-dist/fonts/tfm/adobe/times/ptmr8r.tfm
INPUT /usr/local/texlive/2017/texmf-dist/fonts/vf/adobe/helvetic/phvb7t.vf
INPUT /usr/local/texlive/2017/texmf-dist/fonts/tfm/adobe/helvetic/phvb8r.tfm
INPUT /usr/local/texlive/2017/texmf-dist/fonts/tfm/adobe/times/ptmr7t.tfm
INPUT /usr/local/texlive/2017/texmf-dist/fonts/tfm/public/cm/cmr10.tfm
INPUT /usr/local/texlive/2017/texmf-dist/fonts/tfm/public/cm/cmr8.tfm
INPUT /usr/local/texlive/2017/texmf-dist/fonts/tfm/public/cm/cmmi10.tfm
INPUT /usr/local/texlive/2017/texmf-dist/fonts/tfm/public/cm/cmmi8.tfm
INPUT /usr/local/texlive/2017/texmf-dist/fonts/tfm/public/cm/cmsy10.tfm
INPUT /usr/local/texlive/2017/texmf-dist/fonts/tfm/public/cm/cmsy8.tfm
INPUT /usr/local/texlive/2017/texmf-dist/fonts/tfm/public/cm/cmex10.tfm
INPUT /usr/local/texlive/2017/texmf-dist/fonts/tfm/public/amsfonts/cmextra/cmex8.tfm
INPUT /usr/local/texlive/2017/texmf-dist/fonts/tfm/public/amsfonts/cmextra/cmex7.tfm
INPUT /usr/local/texlive/2017/texmf-dist/fonts/tfm/public/amsfonts/symbols/msam10.tfm
INPUT /usr/local/texlive/2017/texmf-dist/fonts/tfm/public/amsfonts/symbols/msam7.tfm
INPUT /usr/local/texlive/2017/texmf-dist/fonts/tfm/public/amsfonts/symbols/msam5.tfm
INPUT /usr/local/texlive/2017/texmf-dist/fonts/tfm/public/amsfonts/symbols/msbm10.tfm
INPUT /usr/local/texlive/2017/texmf-dist/fonts/tfm/public/amsfonts/symbols/msbm7.tfm
INPUT /usr/local/texlive/2017/texmf-dist/fonts/tfm/public/amsfonts/symbols/msbm5.tfm
INPUT /usr/local/texlive/2017/texmf-dist/fonts/tfm/adobe/times/ptmr7t.tfm
INPUT /usr/local/texlive/2017/texmf-dist/fonts/tfm/adobe/times/ptmb7t.tfm
INPUT /usr/local/texlive/2017/texmf-dist/fonts/tfm/adobe/helvetic/phvbo7t.tfm
INPUT /usr/local/texlive/2017/texmf-dist/fonts/vf/adobe/helvetic/phvbo7t.vf
INPUT /usr/local/texlive/2017/texmf-dist/fonts/tfm/adobe/helvetic/phvbo8r.tfm
INPUT /usr/local/texlive/2017/texmf-dist/fonts/vf/adobe/times/ptmb7t.vf
INPUT /usr/local/texlive/2017/texmf-dist/fonts/tfm/adobe/times/ptmb8r.tfm
INPUT /usr/local/texlive/2017/texmf-dist/fonts/vf/adobe/helvetic/phvr7t.vf
INPUT /usr/local/texlive/2017/texmf-dist/fonts/tfm/adobe/helvetic/phvr8r.tfm
INPUT /usr/local/texlive/2017/texmf-dist/fonts/tfm/adobe/times/ptmr7t.tfm
INPUT /usr/local/texlive/2017/texmf-dist/fonts/tfm/adobe/times/ptmr7t.tfm
INPUT /usr/local/texlive/2017/texmf-dist/fonts/tfm/public/cm/cmr6.tfm
INPUT /usr/local/texlive/2017/texmf-dist/fonts/tfm/public/cm/cmmi6.tfm
INPUT /usr/local/texlive/2017/texmf-dist/fonts/tfm/public/cm/cmsy6.tfm
INPUT /usr/local/texlive/2017/texmf-dist/fonts/tfm/public/amsfonts/cmextra/cmex8.tfm
INPUT /usr/local/texlive/2017/texmf-dist/fonts/tfm/public/amsfonts/cmextra/cmex7.tfm
INPUT /usr/local/texlive/2017/texmf-dist/fonts/tfm/public/amsfonts/cmextra/cmex7.tfm
INPUT /usr/local/texlive/2017/texmf-dist/fonts/tfm/public/amsfonts/symbols/msam10.tfm
INPUT /usr/local/texlive/2017/texmf-dist/fonts/tfm/public/amsfonts/symbols/msam7.tfm
INPUT /usr/local/texlive/2017/texmf-dist/fonts/tfm/public/amsfonts/symbols/msam5.tfm
INPUT /usr/local/texlive/2017/texmf-dist/fonts/tfm/public/amsfonts/symbols/msbm10.tfm
INPUT /usr/local/texlive/2017/texmf-dist/fonts/tfm/public/amsfonts/symbols/msbm7.tfm
INPUT /usr/local/texlive/2017/texmf-dist/fonts/tfm/public/amsfonts/symbols/msbm5.tfm
INPUT /usr/local/texlive/2017/texmf-dist/fonts/tfm/adobe/times/ptmr7t.tfm
INPUT dialog.jpg
INPUT ./dialog.jpg
INPUT ./dialog.jpg
INPUT /usr/local/texlive/2017/texmf-dist/fonts/vf/adobe/times/ptmr7t.vf
INPUT /usr/local/texlive/2017/texmf-dist/fonts/tfm/adobe/times/ptmr8r.tfm
INPUT /usr/local/texlive/2017/texmf-dist/fonts/vf/adobe/times/ptmr7t.vf
INPUT /usr/local/texlive/2017/texmf-dist/fonts/tfm/adobe/times/ptmr8r.tfm
INPUT /usr/local/texlive/2017/texmf-dist/fonts/vf/adobe/times/ptmr7t.vf
INPUT /usr/local/texlive/2017/texmf-dist/fonts/tfm/adobe/times/ptmr8r.tfm
INPUT coding.jpg
INPUT ./coding.jpg
INPUT ./coding.jpg
INPUT /usr/local/texlive/2017/texmf-dist/fonts/tfm/adobe/times/ptmri7t.tfm
INPUT /usr/local/texlive/2017/texmf-dist/fonts/tfm/adobe/helvetic/phvbo7t.tfm
INPUT /usr/local/texlive/2017/texmf-dist/fonts/vf/adobe/helvetic/phvbo7t.vf
INPUT /usr/local/texlive/2017/texmf-dist/fonts/tfm/adobe/helvetic/phvbo8r.tfm
INPUT /usr/local/texlive/2017/texmf-dist/fonts/tfm/adobe/helvetic/phvro7t.tfm
INPUT /usr/local/texlive/2017/texmf-dist/fonts/vf/adobe/helvetic/phvro7t.vf
INPUT bins.jpg
INPUT ./bins.jpg
INPUT ./bins.jpg
INPUT theta.jpg
INPUT ./theta.jpg
INPUT ./theta.jpg
INPUT algo1.jpg
INPUT ./algo1.jpg
INPUT ./algo1.jpg
INPUT en.png
INPUT ./en.png
INPUT ./en.png
INPUT CPCPS_graphs.jpg
INPUT ./CPCPS_graphs.jpg
INPUT ./CPCPS_graphs.jpg
INPUT cluster-counts.jpg
INPUT ./cluster-counts.jpg
INPUT ./cluster-counts.jpg
INPUT cluser-means-normed-sorted.jpg
INPUT ./cluser-means-normed-sorted.jpg
INPUT ./cluser-means-normed-sorted.jpg
INPUT tab3.jpg
INPUT ./tab3.jpg
INPUT ./tab3.jpg
INPUT /usr/local/texlive/2017/texmf-dist/tex/latex/psnfss/omsptm.fd
INPUT /usr/local/texlive/2017/texmf-dist/tex/latex/psnfss/omsptm.fd
INPUT EM_Multipanel.jpg
INPUT ./EM_Multipanel.jpg
INPUT ./EM_Multipanel.jpg
INPUT contour.jpg
INPUT ./contour.jpg
INPUT ./contour.jpg
INPUT avd_frontiers.bbl
INPUT avd_frontiers.bbl
INPUT /usr/local/texlive/2017/texmf-dist/fonts/vf/adobe/times/ptmri7t.vf
INPUT /usr/local/texlive/2017/texmf-dist/fonts/tfm/adobe/times/ptmri8r.tfm
INPUT avd_frontiers.aux
INPUT ./avd_frontiers.out
INPUT ./avd_frontiers.out
INPUT /usr/local/texlive/2017/texmf-dist/fonts/enc/dvips/base/8r.enc
INPUT /usr/local/texlive/2017/texmf-dist/fonts/type1/public/amsfonts/cm/cmex10.pfb
INPUT /usr/local/texlive/2017/texmf-dist/fonts/type1/public/amsfonts/cm/cmmi10.pfb
INPUT /usr/local/texlive/2017/texmf-dist/fonts/type1/public/amsfonts/cm/cmmi12.pfb
INPUT /usr/local/texlive/2017/texmf-dist/fonts/type1/public/amsfonts/cm/cmmi7.pfb
INPUT /usr/local/texlive/2017/texmf-dist/fonts/type1/public/amsfonts/cm/cmmi8.pfb
INPUT /usr/local/texlive/2017/texmf-dist/fonts/type1/public/amsfonts/cm/cmmi9.pfb
INPUT /usr/local/texlive/2017/texmf-dist/fonts/type1/public/amsfonts/cm/cmr10.pfb
INPUT /usr/local/texlive/2017/texmf-dist/fonts/type1/public/amsfonts/cm/cmr12.pfb
INPUT /usr/local/texlive/2017/texmf-dist/fonts/type1/public/amsfonts/cm/cmr8.pfb
INPUT /usr/local/texlive/2017/texmf-dist/fonts/type1/public/amsfonts/cm/cmr9.pfb
INPUT /usr/local/texlive/2017/texmf-dist/fonts/type1/public/amsfonts/cm/cmsy10.pfb
INPUT /usr/local/texlive/2017/texmf-dist/fonts/type1/public/amsfonts/cm/cmsy9.pfb
INPUT /usr/local/texlive/2017/texmf-dist/fonts/type1/urw/helvetic/uhvb8a.pfb
INPUT /usr/local/texlive/2017/texmf-dist/fonts/type1/urw/helvetic/uhvbo8a.pfb
INPUT /usr/local/texlive/2017/texmf-dist/fonts/type1/urw/helvetic/uhvr8a.pfb
INPUT /usr/local/texlive/2017/texmf-dist/fonts/type1/urw/helvetic/uhvro8a.pfb
INPUT /usr/local/texlive/2017/texmf-dist/fonts/type1/urw/times/utmb8a.pfb
INPUT /usr/local/texlive/2017/texmf-dist/fonts/type1/urw/times/utmr8a.pfb
INPUT /usr/local/texlive/2017/texmf-dist/fonts/type1/urw/times/utmri8a.pfb
