This is BibTeX, Version 0.99d (TeX Live 2017)
Capacity: max_strings=100000, hash_size=100000, hash_prime=85009
The top-level auxiliary file: avd_frontiers.aux
The style file: frontiersinSCNS_ENG_HUMS.bst
Database file #1: test.bib
Reallocated wiz_functions (elt_size=4) to 6000 items from 3000.
Warning--empty pages in bazaldua2015convergence
Warning--empty pages in haocollaborative
Warning--empty pages in li2013discovery
Warning--empty journal in naep2017
Warning--empty journal in robins1997quest
Warning--empty journal in sanchez2011problem
You've used 51 entries,
            3027 wiz_defined-function locations,
            879 strings with 14952 characters,
and the built_in function-call counts, 31842 in all, are:
= -- 2627
> -- 1642
< -- 26
+ -- 801
- -- 442
* -- 2250
:= -- 4743
add.period$ -- 97
call.type$ -- 51
change.case$ -- 415
chr.to.int$ -- 52
cite$ -- 108
duplicate$ -- 2148
empty$ -- 2254
format.name$ -- 594
if$ -- 6437
int.to.chr$ -- 2
int.to.str$ -- 1
missing$ -- 461
newline$ -- 312
num.names$ -- 204
pop$ -- 1138
preamble$ -- 1
purify$ -- 351
quote$ -- 0
skip$ -- 1171
stack$ -- 0
substring$ -- 1186
swap$ -- 974
text.length$ -- 0
text.prefix$ -- 0
top$ -- 0
type$ -- 450
warning$ -- 6
while$ -- 204
width$ -- 0
write$ -- 694
(There were 6 warnings)
