\relax 
\providecommand\hyper@newdestlabel[2]{}
\providecommand\HyperFirstAtBeginDocument{\AtBeginDocument}
\HyperFirstAtBeginDocument{\ifx\hyper@anchor\@undefined
\global\let\oldcontentsline\contentsline
\gdef\contentsline#1#2#3#4{\oldcontentsline{#1}{#2}{#3}}
\global\let\oldnewlabel\newlabel
\gdef\newlabel#1#2{\newlabelxx{#1}#2}
\gdef\newlabelxx#1#2#3#4#5#6{\oldnewlabel{#1}{{#2}{#3}}}
\AtEndDocument{\ifx\hyper@anchor\@undefined
\let\contentsline\oldcontentsline
\let\newlabel\oldnewlabel
\fi}
\fi}
\global\let\hyper@last\relax 
\gdef\HyperFirstAtBeginDocument#1{#1}
\providecommand\HyField@AuxAddToFields[1]{}
\providecommand\HyField@AuxAddToCoFields[2]{}
\citation{griffin2012assessment}
\citation{oliveri2017literature,he2017collaborative}
\citation{vondavier2017}
\newcplabel{^_1}{1}
\@writefile{toc}{\contentsline {section}{\numberline {1}Introduction}{1}{section.1}}
\citation{camara2015beyond}
\@writefile{toc}{\contentsline {section}{\numberline {2}Material and Methods}{2}{section.2}}
\@writefile{toc}{\contentsline {subsection}{\numberline {{2.1}}CPS Sub-skills}{2}{subsection.2.1}}
\citation{pisa2013results}
\citation{naep2017}
\citation{vondavier2017}
\citation{JEM2017v54}
\citation{davey2015psychometric}
\@writefile{toc}{\contentsline {subsubsection}{\numberline {{{2.1}.1}}Sub-skill Expected Use}{3}{subsubsection.2.1.1}}
\@writefile{toc}{\contentsline {subsubsection}{\numberline {{{2.1}.2}}CPS Assessments}{3}{subsubsection.2.1.2}}
\citation{haocollaborative}
\citation{shute2008monitoring}
\citation{mislevy2003focus,shute2008monitoring}
\citation{sanchez2011problem,sung2013collaborative}
\citation{paulhus2007self}
\citation{robins1997quest}
\@writefile{toc}{\contentsline {subsection}{\numberline {{2.2}}Simulation/Game Design}{4}{subsection.2.2}}
\citation{steiner1972group}
\citation{camara2015beyond}
\citation{vondavier2015a}
\citation{vondavier2017}
\citation{khan2013hierarchical,khan2015}
\citation{mislevy2006concepts}
\@writefile{lof}{\contentsline {figure}{\numberline {1}{\ignorespaces Circuit Runner: A CPS Dialog Panel Game Screenshot\relax }}{5}{figure.caption.1}}
\providecommand*\caption@xref[2]{\@setref\relax\@undefined{#1}}
\newlabel{fig:dialog1}{{1}{5}{Circuit Runner: A CPS Dialog Panel Game Screenshot\relax }{figure.caption.1}{}}
\@writefile{toc}{\contentsline {subsection}{\numberline {{2.3}}Design Limitations}{5}{subsection.2.3}}
\@writefile{toc}{\contentsline {subsection}{\numberline {{2.4}}Computational Psychometrics}{5}{subsection.2.4}}
\citation{bazaldua2015convergence}
\citation{mislevy2014psychometric}
\citation{levy2014dynamic}
\citation{corbett1994knowledge}
\citation{desmarais2012review}
\citation{vanlehn2008intelligent}
\citation{shute2008you}
\citation{davier2013collaborative}
\citation{soller2007applications}
\citation{bergnerjuly2015}
\citation{lamar2014models}
\citation{romero2009evolutionary}
\citation{zhang2015}
\citation{kerr2015using}
\citation{kerr2012identifying}
\citation{khan2015}
\citation{vondaviers2016}
\citation{camara2015beyond}
\@writefile{toc}{\contentsline {subsubsection}{\numberline {{{2.4}.1}}Skill Evidence Tagging}{7}{subsubsection.2.4.1}}
\@writefile{lof}{\contentsline {figure}{\numberline {2}{\ignorespaces CPS Response Coding\relax }}{7}{figure.caption.2}}
\newlabel{fig:coding}{{2}{7}{CPS Response Coding\relax }{figure.caption.2}{}}
\citation{corbett1994knowledge}
\@writefile{lot}{\contentsline {table}{\numberline {1}{\ignorespaces Log file format\relax }}{8}{table.caption.3}}
\newlabel{tab:orig}{{1}{8}{Log file format\relax }{table.caption.3}{}}
\@writefile{toc}{\contentsline {paragraph}{\numberline {{{2.4}.1}.1}Bayesian Evidence Tracing}{8}{paragraph.2.4.1.1}}
\@writefile{toc}{\contentsline {paragraph}{\numberline {{{2.4}.1}.2}Extract}{8}{paragraph.2.4.1.2}}
\@writefile{toc}{\contentsline {paragraph}{\numberline {{{2.4}.1}.3}Transform}{8}{paragraph.2.4.1.3}}
\@writefile{toc}{\contentsline {paragraph}{\numberline {{{2.4}.1}.4}1-Hot}{8}{paragraph.2.4.1.4}}
\citation{mr1763essay}
\@writefile{toc}{\contentsline {paragraph}{\numberline {{{2.4}.1}.5}Compute}{9}{paragraph.2.4.1.5}}
\@writefile{toc}{\contentsline {subparagraph}{\numberline {{{2.4}.1}.5.1}Bayes' Theorem}{9}{subparagraph.2.4.1.5.1}}
\newlabel{eq:01}{{1}{9}{Bayes' Theorem}{equation.2.1}{}}
\citation{mislevy2014psychometric}
\@writefile{lof}{\contentsline {figure}{\numberline {3}{\ignorespaces Bayesian Selection Example\relax }}{10}{figure.caption.4}}
\newlabel{fig:bins}{{3}{10}{Bayesian Selection Example\relax }{figure.caption.4}{}}
\@writefile{toc}{\contentsline {paragraph}{\numberline {{{2.4}.1}.6}Response to Skill}{10}{paragraph.2.4.1.6}}
\citation{mislevy2014psychometric}
\@writefile{lof}{\contentsline {figure}{\numberline {4}{\ignorespaces Conditional distribution of $xs$ given $\theta $ \relax }}{11}{figure.caption.5}}
\newlabel{fig:theta}{{4}{11}{Conditional distribution of $xs$ given $\theta $ \relax }{figure.caption.5}{}}
\@writefile{lot}{\contentsline {table}{\numberline {2}{\ignorespaces Conditional Probability Table (CPT)\relax }}{11}{table.caption.6}}
\newlabel{tab:cpt}{{2}{11}{Conditional Probability Table (CPT)\relax }{table.caption.6}{}}
\@writefile{toc}{\contentsline {paragraph}{\numberline {{{2.4}.1}.7}Conditional Probability Tables}{11}{paragraph.2.4.1.7}}
\@writefile{lof}{\contentsline {figure}{\numberline {5}{\ignorespaces Bayesian Evidence Tracing Algorithm \relax }}{12}{figure.caption.7}}
\newlabel{fig:algo1}{{5}{12}{Bayesian Evidence Tracing Algorithm \relax }{figure.caption.7}{}}
\@writefile{toc}{\contentsline {paragraph}{\numberline {{{2.4}.1}.8}Evidence Tracing}{12}{paragraph.2.4.1.8}}
\@writefile{toc}{\contentsline {subsection}{\numberline {{2.5}}Study Execution}{12}{subsection.2.5}}
\citation{ashton2004six}
\citation{mislevy2014psychometric}
\@writefile{toc}{\contentsline {subsubsection}{\numberline {{{2.5}.1}}Method of Subject Identification and Recruitment}{13}{subsubsection.2.5.1}}
\@writefile{toc}{\contentsline {subsubsection}{\numberline {{{2.5}.2}}Process of Consent}{13}{subsubsection.2.5.2}}
\@writefile{toc}{\contentsline {subsection}{\numberline {{2.6}}Postgame Analysis}{13}{subsection.2.6}}
\citation{bauckhage2015clustering}
\citation{kerr2011feasibility,canossa2013meaning,smith2011unsupervised,orkin2011semi,li2013discovery}
\citation{thurau2010analyzing}
\citation{gow2012unsupervised}
\citation{teofilo2013identifying}
\@writefile{toc}{\contentsline {subsubsection}{\numberline {{{2.6}.1}}Extract}{14}{subsubsection.2.6.1}}
\@writefile{toc}{\contentsline {subsubsection}{\numberline {{{2.6}.2}}Transform}{14}{subsubsection.2.6.2}}
\@writefile{toc}{\contentsline {subsubsection}{\numberline {{{2.6}.3}}k-means Methodology}{14}{subsubsection.2.6.3}}
\citation{steinhaus1956division}
\@writefile{toc}{\contentsline {subsubsection}{\numberline {{{2.6}.4}}Encode/Translate}{15}{subsubsection.2.6.4}}
\@writefile{toc}{\contentsline {subsubsection}{\numberline {{{2.6}.5}}Score}{15}{subsubsection.2.6.5}}
\citation{arya1998optimal}
\citation{mclachlan1988mixture}
\@writefile{lot}{\contentsline {table}{\numberline {3}{\ignorespaces Scores Matrix\relax }}{16}{table.caption.8}}
\newlabel{tab:scores}{{3}{16}{Scores Matrix\relax }{table.caption.8}{}}
\@writefile{toc}{\contentsline {subsubsection}{\numberline {{{2.6}.6}}Cluster}{16}{subsubsection.2.6.6}}
\@writefile{toc}{\contentsline {subsubsection}{\numberline {{{2.6}.7}}K Exploration}{16}{subsubsection.2.6.7}}
\@writefile{toc}{\contentsline {subsubsection}{\numberline {{{2.6}.8}}K-NN Query by Game Id}{16}{subsubsection.2.6.8}}
\@writefile{toc}{\contentsline {subsubsection}{\numberline {{{2.6}.9}}Mixture Model Methodology}{16}{subsubsection.2.6.9}}
\@writefile{toc}{\contentsline {section}{\numberline {3}Results}{17}{section.3}}
\@writefile{toc}{\contentsline {subsection}{\numberline {{3.1}}Bayesian Evidence Tracing Results}{17}{subsection.3.1}}
\newlabel{sec:results}{{{3.1}}{17}{Bayesian Evidence Tracing Results}{subsection.3.1}{}}
\@writefile{lof}{\contentsline {figure}{\numberline {6}{\ignorespaces Engagement (EN) Sub-Skill Level Probability over Time for a Single Game\relax }}{18}{figure.caption.9}}
\newlabel{fig:game114en-mat}{{6}{18}{Engagement (EN) Sub-Skill Level Probability over Time for a Single Game\relax }{figure.caption.9}{}}
\@writefile{toc}{\contentsline {subsection}{\numberline {{3.2}}Clustering Results}{18}{subsection.3.2}}
\@writefile{toc}{\contentsline {subsubsection}{\numberline {{{3.2}.1}}k-means/K-NN Results}{18}{subsubsection.3.2.1}}
\@writefile{toc}{\contentsline {subsubsection}{\numberline {{{3.2}.2}}Cluster Characteristics}{18}{subsubsection.3.2.2}}
\@writefile{lof}{\contentsline {figure}{\numberline {7}{\ignorespaces Probability (y-axis) over time (x-axis) for a single game (game id = 114) (Blue=High,White=Med,Orange=Low). Engagement (EN), Monitor Understanding (MU), Feature Identification (FI), Evaluation (EV), Strategy(S) \relax }}{19}{figure.caption.10}}
\newlabel{fig:game114en}{{7}{19}{Probability (y-axis) over time (x-axis) for a single game (game id = 114) (Blue=High,White=Med,Orange=Low). Engagement (EN), Monitor Understanding (MU), Feature Identification (FI), Evaluation (EV), Strategy(S) \relax }{figure.caption.10}{}}
\citation{arya1998optimal}
\@writefile{lof}{\contentsline {figure}{\numberline {8}{\ignorespaces CPS Data Cluster Counts\relax }}{20}{figure.caption.11}}
\newlabel{fig:counts}{{8}{20}{CPS Data Cluster Counts\relax }{figure.caption.11}{}}
\@writefile{lof}{\contentsline {figure}{\numberline {9}{\ignorespaces CPS Data Cluster Domain Score Means \relax }}{20}{figure.caption.12}}
\newlabel{fig:means}{{9}{20}{CPS Data Cluster Domain Score Means \relax }{figure.caption.12}{}}
\@writefile{toc}{\contentsline {subsubsection}{\numberline {{{3.2}.3}}K-NN Query by Game Id}{20}{subsubsection.3.2.3}}
\@writefile{lof}{\contentsline {figure}{\numberline {10}{\ignorespaces Tableau Visualization of Scores By Cluster. Each color/column is a cluster. A dot represents a game score in CPS sub-skill \{EN,FI,MU\}. A black line shows a cluster mean score.\relax }}{21}{figure.caption.13}}
\newlabel{fig:tab3}{{10}{21}{Tableau Visualization of Scores By Cluster. Each color/column is a cluster. A dot represents a game score in CPS sub-skill \{EN,FI,MU\}. A black line shows a cluster mean score.\relax }{figure.caption.13}{}}
\@writefile{toc}{\contentsline {subsubsection}{\numberline {{{3.2}.4}}Mixture Model Results}{21}{subsubsection.3.2.4}}
\@writefile{lof}{\contentsline {figure}{\numberline {11}{\ignorespaces EM Clustering Visualization\relax }}{22}{figure.caption.14}}
\newlabel{fig:em1}{{11}{22}{EM Clustering Visualization\relax }{figure.caption.14}{}}
\@writefile{lof}{\contentsline {figure}{\numberline {12}{\ignorespaces EM Contour Plot\relax }}{22}{figure.caption.15}}
\newlabel{fig:em2}{{12}{22}{EM Contour Plot\relax }{figure.caption.15}{}}
\@writefile{toc}{\contentsline {section}{\numberline {4}Discussion}{22}{section.4}}
\bibstyle{frontiersinSCNS_ENG_HUMS}
\bibdata{test}
\bibcite{arya1998optimal}{{1}{1998}{{Arya et~al.}}{{Arya, Mount, Netanyahu, Silverman, and Wu}}}
\bibcite{ashton2004six}{{2}{2004}{{Ashton et~al.}}{{Ashton, Lee, Perugini, Szarota, De~Vries, Di~Blas et~al.}}}
\bibcite{bauckhage2015clustering}{{3}{2015}{{Bauckhage et~al.}}{{Bauckhage, Drachen, and Sifa}}}
\bibcite{mr1763essay}{{4}{1763}{{Bayes and Price}}{{}}}
\bibcite{bazaldua2015convergence}{{5}{2015}{{Bazaldua et~al.}}{{Bazaldua, Khan, von Davier, Hao, Liu, and Wang}}}
\bibcite{bergnerjuly2015}{{6}{2015, July}{{Bergner et~al.}}{{Bergner, Andrews, Zhu, and Kitchen}}}
\bibcite{camara2015beyond}{{7}{2015}{{Camara et~al.}}{{Camara, O'Connor, Mattern, and Hanson}}}
\bibcite{canossa2013meaning}{{8}{2013}{{Canossa}}{{}}}
\bibcite{corbett1994knowledge}{{9}{1994}{{Corbett and Anderson}}{{}}}
\bibcite{davey2015psychometric}{{10}{2015}{{Davey et~al.}}{{Davey, Ferrara, Shavelson, Holland, Webb, and Wise}}}
\bibcite{desmarais2012review}{{11}{2012}{{Desmarais and Baker}}{{}}}
\bibcite{gow2012unsupervised}{{12}{2012}{{Gow et~al.}}{{Gow, Baumgarten, Cairns, Colton, and Miller}}}
\bibcite{griffin2012assessment}{{13}{2012}{{Griffin et~al.}}{{Griffin, McGaw, and Care}}}
\bibcite{haocollaborative}{{14}{2016}{{Hao et~al.}}{{Hao, Liu, von Davier, Kyllonen, and Kitchen}}}
\bibcite{he2017collaborative}{{15}{2017}{{He et~al.}}{{He, von Davier, Greiff, Steinhauer, and Borysewicz}}}
\bibcite{kerr2015using}{{16}{2015}{{Kerr}}{{}}}
\bibcite{kerr2012identifying}{{17}{2012}{{Kerr and Chung}}{{}}}
\bibcite{kerr2011feasibility}{{18}{2011}{{Kerr et~al.}}{{Kerr, Chung, and Iseli}}}
\bibcite{khan2015}{{19}{September,2015}{{Khan}}{{}}}
\bibcite{khan2013hierarchical}{{20}{2013}{{Khan et~al.}}{{Khan, Cheng, and Kumar}}}
\bibcite{lamar2014models}{{21}{2014}{{LaMar}}{{}}}
\bibcite{levy2014dynamic}{{22}{2014}{{Levy}}{{}}}
\bibcite{li2013discovery}{{23}{2013}{{Li et~al.}}{{Li, Munoz-Avila, Ke, Symborski, and Alonso}}}
\bibcite{mclachlan1988mixture}{{24}{1988}{{McLachlan and Basford}}{{}}}
\bibcite{mislevy2014psychometric}{{25}{2014}{{Mislevy et~al.}}{{Mislevy, Oranje, Bauer, von Davier, Hao, Corrigan et~al.}}}
\bibcite{mislevy2003focus}{{26}{2003}{{Mislevy et~al.}}{{Mislevy, Steinberg, and Almond}}}
\bibcite{mislevy2006concepts}{{27}{2006}{{Mislevy et~al.}}{{Mislevy, Steinberg, Almond, and Lukas}}}
\bibcite{naep2017}{{28}{2017}{{NCES}}{{}}}
\bibcite{oliveri2017literature}{{29}{2017}{{Oliveri et~al.}}{{Oliveri, Lawless, and Molloy}}}
\bibcite{orkin2011semi}{{30}{2011}{{Orkin and Roy}}{{}}}
\bibcite{paulhus2007self}{{31}{2007}{{Paulhus et~al.}}{{Paulhus, Vazire, Robins, Fraley, and Krueger}}}
\bibcite{pisa2013results}{{32}{2013}{{PISA, OECD}}{{}}}
\bibcite{robins1997quest}{{33}{1997}{{Robins and John}}{{}}}
\bibcite{romero2009evolutionary}{{34}{2009}{{Romero et~al.}}{{Romero, Gonz{\'a}lez, Ventura, Del~Jes{\'u}s, and Herrera}}}
\bibcite{sanchez2011problem}{{35}{2011}{{S{\'a}nchez and Olivares}}{{}}}
\bibcite{shute2008you}{{36}{2008{a}}{{Shute et~al.}}{{Shute, Hansen, and Almond}}}
\bibcite{shute2008monitoring}{{37}{2008{b}}{{Shute et~al.}}{{Shute, Ventura, Bauer, and Zapata-Rivera}}}
\bibcite{smith2011unsupervised}{{38}{2011}{{Smith}}{{}}}
\bibcite{soller2007applications}{{39}{2007}{{Soller and Stevens}}{{}}}
\bibcite{steiner1972group}{{40}{1972}{{Steiner}}{{}}}
\bibcite{steinhaus1956division}{{41}{1956}{{Steinhaus}}{{}}}
\bibcite{sung2013collaborative}{{42}{2013}{{Sung and Hwang}}{{}}}
\bibcite{teofilo2013identifying}{{43}{2013}{{Te{\'o}filo and Reis}}{{}}}
\bibcite{thurau2010analyzing}{{44}{2010}{{Thurau and Bauckhage}}{{}}}
\bibcite{vanlehn2008intelligent}{{45}{2008}{{VanLehn}}{{}}}
\bibcite{JEM2017v54}{{46}{2017}{{von Davier}}{{}}}
\bibcite{vondavier2015a}{{47}{July, 2015}{{von Davier}}{{}}}
\bibcite{davier2013collaborative}{{48}{2013}{{von Davier and Halpin}}{{}}}
\bibcite{vondaviers2016}{{49}{2016, July}{{von Davier et~al.}}{{von Davier, van~der Schaar, and Baraniuk}}}
\bibcite{vondavier2017}{{50}{2017}{{von Davier et~al.}}{{von Davier, Zhu, and Kyllonen}}}
\bibcite{zhang2015}{{51}{2015, July}{{Zhang et~al.}}{{Zhang, Hao, Li, and P.}}}
\global\@namedef{@lastpage@}{25}
